{
  "runtimeTarget": {
    "name": ".NETCoreApp,Version=v2.2/win-x64",
    "signature": "8fa822e5e3ea9b4130c5997917b73b72688ea82e"
  },
  "compilationOptions": {},
  "targets": {
    ".NETCoreApp,Version=v2.2": {},
    ".NETCoreApp,Version=v2.2/win-x64": {
      "EncryptionStandards/1.0.0": {
        "dependencies": {
          "Microsoft.NETCore.App": "2.2.7"
        },
        "runtime": {
          "EncryptionStandards.dll": {}
        }
      },
      "Microsoft.NETCore.App/2.2.7": {
        "dependencies": {
          "Microsoft.NETCore.DotNetHostPolicy": "2.2.7",
          "Microsoft.NETCore.Platforms": "2.2.3",
          "Microsoft.NETCore.Targets": "2.0.0",
          "NETStandard.Library": "2.0.3",
          "runtime.win-x64.Microsoft.NETCore.App": "2.2.7"
        }
      },
      "Microsoft.NETCore.DotNetAppHost/2.2.7": {
        "dependencies": {
          "runtime.win-x64.Microsoft.NETCore.DotNetAppHost": "2.2.7"
        }
      },
      "Microsoft.NETCore.DotNetHostPolicy/2.2.7": {
        "dependencies": {
          "Microsoft.NETCore.DotNetHostResolver": "2.2.7",
          "runtime.win-x64.Microsoft.NETCore.DotNetHostPolicy": "2.2.7"
        }
      },
      "Microsoft.NETCore.DotNetHostResolver/2.2.7": {
        "dependencies": {
          "Microsoft.NETCore.DotNetAppHost": "2.2.7",
          "runtime.win-x64.Microsoft.NETCore.DotNetHostResolver": "2.2.7"
        }
      },
      "Microsoft.NETCore.Platforms/2.2.3": {},
      "Microsoft.NETCore.Targets/2.0.0": {},
      "NETStandard.Library/2.0.3": {
        "dependencies": {
          "Microsoft.NETCore.Platforms": "2.2.3"
        }
      },
      "runtime.win-x64.Microsoft.NETCore.App/2.2.7": {
        "runtime": {
          "runtimes/win-x64/lib/netcoreapp2.2/Microsoft.CSharp.dll": {
            "assemblyVersion": "4.0.4.0",
            "fileVersion": "4.6.28008.3"
          },
          "runtimes/win-x64/lib/netcoreapp2.2/Microsoft.VisualBasic.dll": {
            "assemblyVersion": "10.0.4.0",
            "fileVersion": "4.6.28008.3"
          },
          "runtimes/win-x64/lib/netcoreapp2.2/Microsoft.Win32.Primitives.dll": {
            "assemblyVersion": "4.1.1.0",
            "fileVersion": "4.6.28008.3"
          },
          "runtimes/win-x64/lib/netcoreapp2.2/Microsoft.Win32.Registry.dll": {
            "assemblyVersion": "4.1.1.0",
            "fileVersion": "4.6.28008.3"
          },
          "runtimes/win-x64/lib/netcoreapp2.2/SOS.NETCore.dll": {
            "assemblyVersion": "1.0.0.0",
            "fileVersion": "4.6.28008.2"
          },
          "runtimes/win-x64/lib/netcoreapp2.2/System.AppContext.dll": {
            "assemblyVersion": "4.2.1.0",
            "fileVersion": "4.6.28008.3"
          },
          "runtimes/win-x64/lib/netcoreapp2.2/System.Buffers.dll": {
            "assemblyVersion": "4.0.3.0",
            "fileVersion": "4.6.28008.3"
          },
          "runtimes/win-x64/lib/netcoreapp2.2/System.Collections.Concurrent.dll": {
            "assemblyVersion": "4.0.14.0",
            "fileVersion": "4.6.28008.3"
          },
          "runtimes/win-x64/lib/netcoreapp2.2/System.Collections.Immutable.dll": {
            "assemblyVersion": "1.2.3.0",
            "fileVersion": "4.6.28008.3"
          },
          "runtimes/win-x64/lib/netcoreapp2.2/System.Collections.NonGeneric.dll": {
            "assemblyVersion": "4.1.1.0",
            "fileVersion": "4.6.28008.3"
          },
          "runtimes/win-x64/lib/netcoreapp2.2/System.Collections.Specialized.dll": {
            "assemblyVersion": "4.1.1.0",
            "fileVersion": "4.6.28008.3"
          },
          "runtimes/win-x64/lib/netcoreapp2.2/System.Collections.dll": {
            "assemblyVersion": "4.1.1.0",
            "fileVersion": "4.6.28008.3"
          },
          "runtimes/win-x64/lib/netcoreapp2.2/System.ComponentModel.Annotations.dll": {
            "assemblyVersion": "4.2.1.0",
            "fileVersion": "4.6.28008.3"
          },
          "runtimes/win-x64/lib/netcoreapp2.2/System.ComponentModel.DataAnnotations.dll": {
            "assemblyVersion": "4.0.0.0",
            "fileVersion": "4.6.28008.3"
          },
          "runtimes/win-x64/lib/netcoreapp2.2/System.ComponentModel.EventBasedAsync.dll": {
            "assemblyVersion": "4.1.1.0",
            "fileVersion": "4.6.28008.3"
          },
          "runtimes/win-x64/lib/netcoreapp2.2/System.ComponentModel.Primitives.dll": {
            "assemblyVersion": "4.2.1.0",
            "fileVersion": "4.6.28008.3"
          },
          "runtimes/win-x64/lib/netcoreapp2.2/System.ComponentModel.TypeConverter.dll": {
            "assemblyVersion": "4.2.1.0",
            "fileVersion": "4.6.28008.3"
          },
          "runtimes/win-x64/lib/netcoreapp2.2/System.ComponentModel.dll": {
            "assemblyVersion": "4.0.3.0",
            "fileVersion": "4.6.28008.3"
          },
          "runtimes/win-x64/lib/netcoreapp2.2/System.Configuration.dll": {
            "assemblyVersion": "4.0.0.0",
            "fileVersion": "4.6.28008.3"
          },
          "runtimes/win-x64/lib/netcoreapp2.2/System.Console.dll": {
            "assemblyVersion": "4.1.1.0",
            "fileVersion": "4.6.28008.3"
          },
          "runtimes/win-x64/lib/netcoreapp2.2/System.Core.dll": {
            "assemblyVersion": "4.0.0.0",
            "fileVersion": "4.6.28008.3"
          },
          "runtimes/win-x64/lib/netcoreapp2.2/System.Data.Common.dll": {
            "assemblyVersion": "4.2.1.0",
            "fileVersion": "4.6.28008.3"
          },
          "runtimes/win-x64/lib/netcoreapp2.2/System.Data.dll": {
            "assemblyVersion": "4.0.0.0",
            "fileVersion": "4.6.28008.3"
          },
          "runtimes/win-x64/lib/netcoreapp2.2/System.Diagnostics.Contracts.dll": {
            "assemblyVersion": "4.0.3.0",
            "fileVersion": "4.6.28008.3"
          },
          "runtimes/win-x64/lib/netcoreapp2.2/System.Diagnostics.Debug.dll": {
            "assemblyVersion": "4.1.1.0",
            "fileVersion": "4.6.28008.3"
          },
          "runtimes/win-x64/lib/netcoreapp2.2/System.Diagnostics.DiagnosticSource.dll": {
            "assemblyVersion": "4.0.3.1",
            "fileVersion": "4.6.28008.3"
          },
          "runtimes/win-x64/lib/netcoreapp2.2/System.Diagnostics.FileVersionInfo.dll": {
            "assemblyVersion": "4.0.3.0",
            "fileVersion": "4.6.28008.3"
          },
          "runtimes/win-x64/lib/netcoreapp2.2/System.Diagnostics.Process.dll": {
            "assemblyVersion": "4.2.1.0",
            "fileVersion": "4.6.28008.3"
          },
          "runtimes/win-x64/lib/netcoreapp2.2/System.Diagnostics.StackTrace.dll": {
            "assemblyVersion": "4.1.1.0",
            "fileVersion": "4.6.28008.3"
          },
          "runtimes/win-x64/lib/netcoreapp2.2/System.Diagnostics.TextWriterTraceListener.dll": {
            "assemblyVersion": "4.1.1.0",
            "fileVersion": "4.6.28008.3"
          },
          "runtimes/win-x64/lib/netcoreapp2.2/System.Diagnostics.Tools.dll": {
            "assemblyVersion": "4.1.1.0",
            "fileVersion": "4.6.28008.3"
          },
          "runtimes/win-x64/lib/netcoreapp2.2/System.Diagnostics.TraceSource.dll": {
            "assemblyVersion": "4.1.1.0",
            "fileVersion": "4.6.28008.3"
          },
          "runtimes/win-x64/lib/netcoreapp2.2/System.Diagnostics.Tracing.dll": {
            "assemblyVersion": "4.2.1.0",
            "fileVersion": "4.6.28008.3"
          },
          "runtimes/win-x64/lib/netcoreapp2.2/System.Drawing.Primitives.dll": {
            "assemblyVersion": "4.2.0.0",
            "fileVersion": "4.6.28008.3"
          },
          "runtimes/win-x64/lib/netcoreapp2.2/System.Drawing.dll": {
            "assemblyVersion": "4.0.0.0",
            "fileVersion": "4.6.28008.3"
          },
          "runtimes/win-x64/lib/netcoreapp2.2/System.Dynamic.Runtime.dll": {
            "assemblyVersion": "4.1.1.0",
            "fileVersion": "4.6.28008.3"
          },
          "runtimes/win-x64/lib/netcoreapp2.2/System.Globalization.Calendars.dll": {
            "assemblyVersion": "4.1.1.0",
            "fileVersion": "4.6.28008.3"
          },
          "runtimes/win-x64/lib/netcoreapp2.2/System.Globalization.Extensions.dll": {
            "assemblyVersion": "4.1.1.0",
            "fileVersion": "4.6.28008.3"
          },
          "runtimes/win-x64/lib/netcoreapp2.2/System.Globalization.dll": {
            "assemblyVersion": "4.1.1.0",
            "fileVersion": "4.6.28008.3"
          },
          "runtimes/win-x64/lib/netcoreapp2.2/System.IO.Compression.Brotli.dll": {
            "assemblyVersion": "4.2.1.0",
            "fileVersion": "4.6.28008.3"
          },
          "runtimes/win-x64/lib/netcoreapp2.2/System.IO.Compression.FileSystem.dll": {
            "assemblyVersion": "4.0.0.0",
            "fileVersion": "4.6.28008.3"
          },
          "runtimes/win-x64/lib/netcoreapp2.2/System.IO.Compression.ZipFile.dll": {
            "assemblyVersion": "4.0.4.0",
            "fileVersion": "4.6.28008.3"
          },
          "runtimes/win-x64/lib/netcoreapp2.2/System.IO.Compression.dll": {
            "assemblyVersion": "4.2.1.0",
            "fileVersion": "4.6.28008.3"
          },
          "runtimes/win-x64/lib/netcoreapp2.2/System.IO.FileSystem.AccessControl.dll": {
            "assemblyVersion": "4.0.3.0",
            "fileVersion": "4.6.28008.3"
          },
          "runtimes/win-x64/lib/netcoreapp2.2/System.IO.FileSystem.DriveInfo.dll": {
            "assemblyVersion": "4.1.1.0",
            "fileVersion": "4.6.28008.3"
          },
          "runtimes/win-x64/lib/netcoreapp2.2/System.IO.FileSystem.Primitives.dll": {
            "assemblyVersion": "4.1.1.0",
            "fileVersion": "4.6.28008.3"
          },
          "runtimes/win-x64/lib/netcoreapp2.2/System.IO.FileSystem.Watcher.dll": {
            "assemblyVersion": "4.1.1.0",
            "fileVersion": "4.6.28008.3"
          },
          "runtimes/win-x64/lib/netcoreapp2.2/System.IO.FileSystem.dll": {
            "assemblyVersion": "4.1.1.0",
            "fileVersion": "4.6.28008.3"
          },
          "runtimes/win-x64/lib/netcoreapp2.2/System.IO.IsolatedStorage.dll": {
            "assemblyVersion": "4.1.1.0",
            "fileVersion": "4.6.28008.3"
          },
          "runtimes/win-x64/lib/netcoreapp2.2/System.IO.MemoryMappedFiles.dll": {
            "assemblyVersion": "4.1.1.0",
            "fileVersion": "4.6.28008.3"
          },
          "runtimes/win-x64/lib/netcoreapp2.2/System.IO.Pipes.AccessControl.dll": {
            "assemblyVersion": "4.0.3.0",
            "fileVersion": "4.6.28008.3"
          },
          "runtimes/win-x64/lib/netcoreapp2.2/System.IO.Pipes.dll": {
            "assemblyVersion": "4.1.1.0",
            "fileVersion": "4.6.28008.3"
          },
          "runtimes/win-x64/lib/netcoreapp2.2/System.IO.UnmanagedMemoryStream.dll": {
            "assemblyVersion": "4.1.1.0",
            "fileVersion": "4.6.28008.3"
          },
          "runtimes/win-x64/lib/netcoreapp2.2/System.IO.dll": {
            "assemblyVersion": "4.2.1.0",
            "fileVersion": "4.6.28008.3"
          },
          "runtimes/win-x64/lib/netcoreapp2.2/System.Linq.Expressions.dll": {
            "assemblyVersion": "4.2.1.0",
            "fileVersion": "4.6.28008.3"
          },
          "runtimes/win-x64/lib/netcoreapp2.2/System.Linq.Parallel.dll": {
            "assemblyVersion": "4.0.3.0",
            "fileVersion": "4.6.28008.3"
          },
          "runtimes/win-x64/lib/netcoreapp2.2/System.Linq.Queryable.dll": {
            "assemblyVersion": "4.0.3.0",
            "fileVersion": "4.6.28008.3"
          },
          "runtimes/win-x64/lib/netcoreapp2.2/System.Linq.dll": {
            "assemblyVersion": "4.2.1.0",
            "fileVersion": "4.6.28008.3"
          },
          "runtimes/win-x64/lib/netcoreapp2.2/System.Memory.dll": {
            "assemblyVersion": "4.1.0.0",
            "fileVersion": "4.6.28008.3"
          },
          "runtimes/win-x64/lib/netcoreapp2.2/System.Net.Http.dll": {
            "assemblyVersion": "4.2.1.0",
            "fileVersion": "4.6.28008.3"
          },
          "runtimes/win-x64/lib/netcoreapp2.2/System.Net.HttpListener.dll": {
            "assemblyVersion": "4.0.1.0",
            "fileVersion": "4.6.28008.3"
          },
          "runtimes/win-x64/lib/netcoreapp2.2/System.Net.Mail.dll": {
            "assemblyVersion": "4.0.1.0",
            "fileVersion": "4.6.28008.3"
          },
          "runtimes/win-x64/lib/netcoreapp2.2/System.Net.NameResolution.dll": {
            "assemblyVersion": "4.1.1.0",
            "fileVersion": "4.6.28008.3"
          },
          "runtimes/win-x64/lib/netcoreapp2.2/System.Net.NetworkInformation.dll": {
            "assemblyVersion": "4.2.1.0",
            "fileVersion": "4.6.28008.3"
          },
          "runtimes/win-x64/lib/netcoreapp2.2/System.Net.Ping.dll": {
            "assemblyVersion": "4.1.1.0",
            "fileVersion": "4.6.28008.3"
          },
          "runtimes/win-x64/lib/netcoreapp2.2/System.Net.Primitives.dll": {
            "assemblyVersion": "4.1.1.0",
            "fileVersion": "4.6.28008.3"
          },
          "runtimes/win-x64/lib/netcoreapp2.2/System.Net.Requests.dll": {
            "assemblyVersion": "4.1.1.0",
            "fileVersion": "4.6.28008.3"
          },
          "runtimes/win-x64/lib/netcoreapp2.2/System.Net.Security.dll": {
            "assemblyVersion": "4.1.1.0",
            "fileVersion": "4.6.28008.3"
          },
          "runtimes/win-x64/lib/netcoreapp2.2/System.Net.ServicePoint.dll": {
            "assemblyVersion": "4.0.1.0",
            "fileVersion": "4.6.28008.3"
          },
          "runtimes/win-x64/lib/netcoreapp2.2/System.Net.Sockets.dll": {
            "assemblyVersion": "4.2.1.0",
            "fileVersion": "4.6.28008.3"
          },
          "runtimes/win-x64/lib/netcoreapp2.2/System.Net.WebClient.dll": {
            "assemblyVersion": "4.0.1.0",
            "fileVersion": "4.6.28008.3"
          },
          "runtimes/win-x64/lib/netcoreapp2.2/System.Net.WebHeaderCollection.dll": {
            "assemblyVersion": "4.1.1.0",
            "fileVersion": "4.6.28008.3"
          },
          "runtimes/win-x64/lib/netcoreapp2.2/System.Net.WebProxy.dll": {
            "assemblyVersion": "4.0.1.0",
            "fileVersion": "4.6.28008.3"
          },
          "runtimes/win-x64/lib/netcoreapp2.2/System.Net.WebSockets.Client.dll": {
            "assemblyVersion": "4.1.1.0",
            "fileVersion": "4.6.28008.3"
          },
          "runtimes/win-x64/lib/netcoreapp2.2/System.Net.WebSockets.dll": {
            "assemblyVersion": "4.1.1.0",
            "fileVersion": "4.6.28008.3"
          },
          "runtimes/win-x64/lib/netcoreapp2.2/System.Net.dll": {
            "assemblyVersion": "4.0.0.0",
            "fileVersion": "4.6.28008.3"
          },
          "runtimes/win-x64/lib/netcoreapp2.2/System.Numerics.Vectors.dll": {
            "assemblyVersion": "4.1.4.0",
            "fileVersion": "4.6.28008.3"
          },
          "runtimes/win-x64/lib/netcoreapp2.2/System.Numerics.dll": {
            "assemblyVersion": "4.0.0.0",
            "fileVersion": "4.6.28008.3"
          },
          "runtimes/win-x64/lib/netcoreapp2.2/System.ObjectModel.dll": {
            "assemblyVersion": "4.1.1.0",
            "fileVersion": "4.6.28008.3"
          },
          "runtimes/win-x64/lib/netcoreapp2.2/System.Private.DataContractSerialization.dll": {
            "assemblyVersion": "4.1.4.0",
            "fileVersion": "4.6.28008.3"
          },
          "runtimes/win-x64/lib/netcoreapp2.2/System.Private.Uri.dll": {
            "assemblyVersion": "4.0.5.0",
            "fileVersion": "4.6.28008.3"
          },
          "runtimes/win-x64/lib/netcoreapp2.2/System.Private.Xml.Linq.dll": {
            "assemblyVersion": "4.0.1.0",
            "fileVersion": "4.6.28008.3"
          },
          "runtimes/win-x64/lib/netcoreapp2.2/System.Private.Xml.dll": {
            "assemblyVersion": "4.0.1.0",
            "fileVersion": "4.6.28008.3"
          },
          "runtimes/win-x64/lib/netcoreapp2.2/System.Reflection.DispatchProxy.dll": {
            "assemblyVersion": "4.0.4.0",
            "fileVersion": "4.6.28008.3"
          },
          "runtimes/win-x64/lib/netcoreapp2.2/System.Reflection.Emit.ILGeneration.dll": {
            "assemblyVersion": "4.0.3.0",
            "fileVersion": "4.6.28008.3"
          },
          "runtimes/win-x64/lib/netcoreapp2.2/System.Reflection.Emit.Lightweight.dll": {
            "assemblyVersion": "4.0.3.0",
            "fileVersion": "4.6.28008.3"
          },
          "runtimes/win-x64/lib/netcoreapp2.2/System.Reflection.Emit.dll": {
            "assemblyVersion": "4.1.1.0",
            "fileVersion": "4.6.28008.3"
          },
          "runtimes/win-x64/lib/netcoreapp2.2/System.Reflection.Extensions.dll": {
            "assemblyVersion": "4.1.1.0",
            "fileVersion": "4.6.28008.3"
          },
          "runtimes/win-x64/lib/netcoreapp2.2/System.Reflection.Metadata.dll": {
            "assemblyVersion": "1.4.3.0",
            "fileVersion": "4.6.28008.3"
          },
          "runtimes/win-x64/lib/netcoreapp2.2/System.Reflection.Primitives.dll": {
            "assemblyVersion": "4.1.1.0",
            "fileVersion": "4.6.28008.3"
          },
          "runtimes/win-x64/lib/netcoreapp2.2/System.Reflection.TypeExtensions.dll": {
            "assemblyVersion": "4.1.3.0",
            "fileVersion": "4.6.28008.3"
          },
          "runtimes/win-x64/lib/netcoreapp2.2/System.Reflection.dll": {
            "assemblyVersion": "4.2.1.0",
            "fileVersion": "4.6.28008.3"
          },
          "runtimes/win-x64/lib/netcoreapp2.2/System.Resources.Reader.dll": {
            "assemblyVersion": "4.1.1.0",
            "fileVersion": "4.6.28008.3"
          },
          "runtimes/win-x64/lib/netcoreapp2.2/System.Resources.ResourceManager.dll": {
            "assemblyVersion": "4.1.1.0",
            "fileVersion": "4.6.28008.3"
          },
          "runtimes/win-x64/lib/netcoreapp2.2/System.Resources.Writer.dll": {
            "assemblyVersion": "4.1.1.0",
            "fileVersion": "4.6.28008.3"
          },
          "runtimes/win-x64/lib/netcoreapp2.2/System.Runtime.CompilerServices.VisualC.dll": {
            "assemblyVersion": "4.1.1.0",
            "fileVersion": "4.6.28008.3"
          },
          "runtimes/win-x64/lib/netcoreapp2.2/System.Runtime.Extensions.dll": {
            "assemblyVersion": "4.2.1.0",
            "fileVersion": "4.6.28008.3"
          },
          "runtimes/win-x64/lib/netcoreapp2.2/System.Runtime.Handles.dll": {
            "assemblyVersion": "4.1.1.0",
            "fileVersion": "4.6.28008.3"
          },
          "runtimes/win-x64/lib/netcoreapp2.2/System.Runtime.InteropServices.RuntimeInformation.dll": {
            "assemblyVersion": "4.0.3.0",
            "fileVersion": "4.6.28008.3"
          },
          "runtimes/win-x64/lib/netcoreapp2.2/System.Runtime.InteropServices.WindowsRuntime.dll": {
            "assemblyVersion": "4.0.3.0",
            "fileVersion": "4.6.28008.3"
          },
          "runtimes/win-x64/lib/netcoreapp2.2/System.Runtime.InteropServices.dll": {
            "assemblyVersion": "4.2.1.0",
            "fileVersion": "4.6.28008.3"
          },
          "runtimes/win-x64/lib/netcoreapp2.2/System.Runtime.Loader.dll": {
            "assemblyVersion": "4.0.3.0",
            "fileVersion": "4.6.28008.3"
          },
          "runtimes/win-x64/lib/netcoreapp2.2/System.Runtime.Numerics.dll": {
            "assemblyVersion": "4.1.1.0",
            "fileVersion": "4.6.28008.3"
          },
          "runtimes/win-x64/lib/netcoreapp2.2/System.Runtime.Serialization.Formatters.dll": {
            "assemblyVersion": "4.0.3.0",
            "fileVersion": "4.6.28008.3"
          },
          "runtimes/win-x64/lib/netcoreapp2.2/System.Runtime.Serialization.Json.dll": {
            "assemblyVersion": "4.0.4.0",
            "fileVersion": "4.6.28008.3"
          },
          "runtimes/win-x64/lib/netcoreapp2.2/System.Runtime.Serialization.Primitives.dll": {
            "assemblyVersion": "4.2.1.0",
            "fileVersion": "4.6.28008.3"
          },
          "runtimes/win-x64/lib/netcoreapp2.2/System.Runtime.Serialization.Xml.dll": {
            "assemblyVersion": "4.1.4.0",
            "fileVersion": "4.6.28008.3"
          },
          "runtimes/win-x64/lib/netcoreapp2.2/System.Runtime.Serialization.dll": {
            "assemblyVersion": "4.0.0.0",
            "fileVersion": "4.6.28008.3"
          },
          "runtimes/win-x64/lib/netcoreapp2.2/System.Runtime.dll": {
            "assemblyVersion": "4.2.1.0",
            "fileVersion": "4.6.28008.3"
          },
          "runtimes/win-x64/lib/netcoreapp2.2/System.Security.AccessControl.dll": {
            "assemblyVersion": "4.1.1.0",
            "fileVersion": "4.6.28008.3"
          },
          "runtimes/win-x64/lib/netcoreapp2.2/System.Security.Claims.dll": {
            "assemblyVersion": "4.1.1.0",
            "fileVersion": "4.6.28008.3"
          },
          "runtimes/win-x64/lib/netcoreapp2.2/System.Security.Cryptography.Algorithms.dll": {
            "assemblyVersion": "4.3.1.0",
            "fileVersion": "4.6.28008.3"
          },
          "runtimes/win-x64/lib/netcoreapp2.2/System.Security.Cryptography.Cng.dll": {
            "assemblyVersion": "4.3.1.0",
            "fileVersion": "4.6.28008.3"
          },
          "runtimes/win-x64/lib/netcoreapp2.2/System.Security.Cryptography.Csp.dll": {
            "assemblyVersion": "4.1.1.0",
            "fileVersion": "4.6.28008.3"
          },
          "runtimes/win-x64/lib/netcoreapp2.2/System.Security.Cryptography.Encoding.dll": {
            "assemblyVersion": "4.1.1.0",
            "fileVersion": "4.6.28008.3"
          },
          "runtimes/win-x64/lib/netcoreapp2.2/System.Security.Cryptography.OpenSsl.dll": {
            "assemblyVersion": "4.1.1.1",
            "fileVersion": "4.6.28008.3"
          },
          "runtimes/win-x64/lib/netcoreapp2.2/System.Security.Cryptography.Primitives.dll": {
            "assemblyVersion": "4.1.1.0",
            "fileVersion": "4.6.28008.3"
          },
          "runtimes/win-x64/lib/netcoreapp2.2/System.Security.Cryptography.X509Certificates.dll": {
            "assemblyVersion": "4.2.1.0",
            "fileVersion": "4.6.28008.3"
          },
          "runtimes/win-x64/lib/netcoreapp2.2/System.Security.Principal.Windows.dll": {
            "assemblyVersion": "4.1.1.1",
            "fileVersion": "4.6.28008.3"
          },
          "runtimes/win-x64/lib/netcoreapp2.2/System.Security.Principal.dll": {
            "assemblyVersion": "4.1.1.0",
            "fileVersion": "4.6.28008.3"
          },
          "runtimes/win-x64/lib/netcoreapp2.2/System.Security.SecureString.dll": {
            "assemblyVersion": "4.1.1.0",
            "fileVersion": "4.6.28008.3"
          },
          "runtimes/win-x64/lib/netcoreapp2.2/System.Security.dll": {
            "assemblyVersion": "4.0.0.0",
            "fileVersion": "4.6.28008.3"
          },
          "runtimes/win-x64/lib/netcoreapp2.2/System.ServiceModel.Web.dll": {
            "assemblyVersion": "4.0.0.0",
            "fileVersion": "4.6.28008.3"
          },
          "runtimes/win-x64/lib/netcoreapp2.2/System.ServiceProcess.dll": {
            "assemblyVersion": "4.0.0.0",
            "fileVersion": "4.6.28008.3"
          },
          "runtimes/win-x64/lib/netcoreapp2.2/System.Text.Encoding.Extensions.dll": {
            "assemblyVersion": "4.1.1.0",
            "fileVersion": "4.6.28008.3"
          },
          "runtimes/win-x64/lib/netcoreapp2.2/System.Text.Encoding.dll": {
            "assemblyVersion": "4.1.1.0",
            "fileVersion": "4.6.28008.3"
          },
          "runtimes/win-x64/lib/netcoreapp2.2/System.Text.RegularExpressions.dll": {
            "assemblyVersion": "4.2.1.0",
            "fileVersion": "4.6.28008.3"
          },
          "runtimes/win-x64/lib/netcoreapp2.2/System.Threading.Overlapped.dll": {
            "assemblyVersion": "4.1.1.0",
            "fileVersion": "4.6.28008.3"
          },
          "runtimes/win-x64/lib/netcoreapp2.2/System.Threading.Tasks.Dataflow.dll": {
            "assemblyVersion": "4.6.3.0",
            "fileVersion": "4.6.28008.3"
          },
          "runtimes/win-x64/lib/netcoreapp2.2/System.Threading.Tasks.Extensions.dll": {
            "assemblyVersion": "4.3.0.0",
            "fileVersion": "4.6.28008.3"
          },
          "runtimes/win-x64/lib/netcoreapp2.2/System.Threading.Tasks.Parallel.dll": {
            "assemblyVersion": "4.0.3.0",
            "fileVersion": "4.6.28008.3"
          },
          "runtimes/win-x64/lib/netcoreapp2.2/System.Threading.Tasks.dll": {
            "assemblyVersion": "4.1.1.0",
            "fileVersion": "4.6.28008.3"
          },
          "runtimes/win-x64/lib/netcoreapp2.2/System.Threading.Thread.dll": {
            "assemblyVersion": "4.1.1.0",
            "fileVersion": "4.6.28008.3"
          },
          "runtimes/win-x64/lib/netcoreapp2.2/System.Threading.ThreadPool.dll": {
            "assemblyVersion": "4.1.1.0",
            "fileVersion": "4.6.28008.3"
          },
          "runtimes/win-x64/lib/netcoreapp2.2/System.Threading.Timer.dll": {
            "assemblyVersion": "4.1.1.0",
            "fileVersion": "4.6.28008.3"
          },
          "runtimes/win-x64/lib/netcoreapp2.2/System.Threading.dll": {
            "assemblyVersion": "4.1.1.0",
            "fileVersion": "4.6.28008.3"
          },
          "runtimes/win-x64/lib/netcoreapp2.2/System.Transactions.Local.dll": {
            "assemblyVersion": "4.0.1.0",
            "fileVersion": "4.6.28008.3"
          },
          "runtimes/win-x64/lib/netcoreapp2.2/System.Transactions.dll": {
            "assemblyVersion": "4.0.0.0",
            "fileVersion": "4.6.28008.3"
          },
          "runtimes/win-x64/lib/netcoreapp2.2/System.ValueTuple.dll": {
            "assemblyVersion": "4.0.3.0",
            "fileVersion": "4.6.28008.3"
          },
          "runtimes/win-x64/lib/netcoreapp2.2/System.Web.HttpUtility.dll": {
            "assemblyVersion": "4.0.1.0",
            "fileVersion": "4.6.28008.3"
          },
          "runtimes/win-x64/lib/netcoreapp2.2/System.Web.dll": {
            "assemblyVersion": "4.0.0.0",
            "fileVersion": "4.6.28008.3"
          },
          "runtimes/win-x64/lib/netcoreapp2.2/System.Windows.dll": {
            "assemblyVersion": "4.0.0.0",
            "fileVersion": "4.6.28008.3"
          },
          "runtimes/win-x64/lib/netcoreapp2.2/System.Xml.Linq.dll": {
            "assemblyVersion": "4.0.0.0",
            "fileVersion": "4.6.28008.3"
          },
          "runtimes/win-x64/lib/netcoreapp2.2/System.Xml.ReaderWriter.dll": {
            "assemblyVersion": "4.2.1.0",
            "fileVersion": "4.6.28008.3"
          },
          "runtimes/win-x64/lib/netcoreapp2.2/System.Xml.Serialization.dll": {
            "assemblyVersion": "4.0.0.0",
            "fileVersion": "4.6.28008.3"
          },
          "runtimes/win-x64/lib/netcoreapp2.2/System.Xml.XDocument.dll": {
            "assemblyVersion": "4.1.1.0",
            "fileVersion": "4.6.28008.3"
          },
          "runtimes/win-x64/lib/netcoreapp2.2/System.Xml.XPath.XDocument.dll": {
            "assemblyVersion": "4.1.1.0",
            "fileVersion": "4.6.28008.3"
          },
          "runtimes/win-x64/lib/netcoreapp2.2/System.Xml.XPath.dll": {
            "assemblyVersion": "4.1.1.0",
            "fileVersion": "4.6.28008.3"
          },
          "runtimes/win-x64/lib/netcoreapp2.2/System.Xml.XmlDocument.dll": {
            "assemblyVersion": "4.1.1.0",
            "fileVersion": "4.6.28008.3"
          },
          "runtimes/win-x64/lib/netcoreapp2.2/System.Xml.XmlSerializer.dll": {
            "assemblyVersion": "4.1.1.0",
            "fileVersion": "4.6.28008.3"
          },
          "runtimes/win-x64/lib/netcoreapp2.2/System.Xml.dll": {
            "assemblyVersion": "4.0.0.0",
            "fileVersion": "4.6.28008.3"
          },
          "runtimes/win-x64/lib/netcoreapp2.2/System.dll": {
            "assemblyVersion": "4.0.0.0",
            "fileVersion": "4.6.28008.3"
          },
          "runtimes/win-x64/lib/netcoreapp2.2/WindowsBase.dll": {
            "assemblyVersion": "4.0.0.0",
            "fileVersion": "4.6.28008.3"
          },
          "runtimes/win-x64/lib/netcoreapp2.2/mscorlib.dll": {
            "assemblyVersion": "4.0.0.0",
            "fileVersion": "4.6.28008.3"
          },
          "runtimes/win-x64/lib/netcoreapp2.2/netstandard.dll": {
            "assemblyVersion": "2.0.0.0",
            "fileVersion": "4.6.28008.3"
          }
        },
        "native": {
          "runtimes/win-x64/native/Microsoft.DiaSymReader.Native.amd64.dll": {
            "fileVersion": "14.12.25830.2"
          },
          "runtimes/win-x64/native/System.Private.CoreLib.dll": {
            "assemblyVersion": "4.0.0.0",
            "fileVersion": "4.6.28008.2"
          },
          "runtimes/win-x64/native/api-ms-win-core-console-l1-1-0.dll": {
            "fileVersion": "10.0.17134.12"
          },
          "runtimes/win-x64/native/api-ms-win-core-datetime-l1-1-0.dll": {
            "fileVersion": "10.0.17134.12"
          },
          "runtimes/win-x64/native/api-ms-win-core-debug-l1-1-0.dll": {
            "fileVersion": "10.0.17134.12"
          },
          "runtimes/win-x64/native/api-ms-win-core-errorhandling-l1-1-0.dll": {
            "fileVersion": "10.0.17134.12"
          },
          "runtimes/win-x64/native/api-ms-win-core-file-l1-1-0.dll": {
            "fileVersion": "10.0.17134.12"
          },
          "runtimes/win-x64/native/api-ms-win-core-file-l1-2-0.dll": {
            "fileVersion": "10.0.17134.12"
          },
          "runtimes/win-x64/native/api-ms-win-core-file-l2-1-0.dll": {
            "fileVersion": "10.0.17134.12"
          },
          "runtimes/win-x64/native/api-ms-win-core-handle-l1-1-0.dll": {
            "fileVersion": "10.0.17134.12"
          },
          "runtimes/win-x64/native/api-ms-win-core-heap-l1-1-0.dll": {
            "fileVersion": "10.0.17134.12"
          },
          "runtimes/win-x64/native/api-ms-win-core-interlocked-l1-1-0.dll": {
            "fileVersion": "10.0.17134.12"
          },
          "runtimes/win-x64/native/api-ms-win-core-libraryloader-l1-1-0.dll": {
            "fileVersion": "10.0.17134.12"
          },
          "runtimes/win-x64/native/api-ms-win-core-localization-l1-2-0.dll": {
            "fileVersion": "10.0.17134.12"
          },
          "runtimes/win-x64/native/api-ms-win-core-memory-l1-1-0.dll": {
            "fileVersion": "10.0.17134.12"
          },
          "runtimes/win-x64/native/api-ms-win-core-namedpipe-l1-1-0.dll": {
            "fileVersion": "10.0.17134.12"
          },
          "runtimes/win-x64/native/api-ms-win-core-processenvironment-l1-1-0.dll": {
            "fileVersion": "10.0.17134.12"
          },
          "runtimes/win-x64/native/api-ms-win-core-processthreads-l1-1-0.dll": {
            "fileVersion": "10.0.17134.12"
          },
          "runtimes/win-x64/native/api-ms-win-core-processthreads-l1-1-1.dll": {
            "fileVersion": "10.0.17134.12"
          },
          "runtimes/win-x64/native/api-ms-win-core-profile-l1-1-0.dll": {
            "fileVersion": "10.0.17134.12"
          },
          "runtimes/win-x64/native/api-ms-win-core-rtlsupport-l1-1-0.dll": {
            "fileVersion": "10.0.17134.12"
          },
          "runtimes/win-x64/native/api-ms-win-core-string-l1-1-0.dll": {
            "fileVersion": "10.0.17134.12"
          },
          "runtimes/win-x64/native/api-ms-win-core-synch-l1-1-0.dll": {
            "fileVersion": "10.0.17134.12"
          },
          "runtimes/win-x64/native/api-ms-win-core-synch-l1-2-0.dll": {
            "fileVersion": "10.0.17134.12"
          },
          "runtimes/win-x64/native/api-ms-win-core-sysinfo-l1-1-0.dll": {
            "fileVersion": "10.0.17134.12"
          },
          "runtimes/win-x64/native/api-ms-win-core-timezone-l1-1-0.dll": {
            "fileVersion": "10.0.17134.12"
          },
          "runtimes/win-x64/native/api-ms-win-core-util-l1-1-0.dll": {
            "fileVersion": "10.0.17134.12"
          },
          "runtimes/win-x64/native/api-ms-win-crt-conio-l1-1-0.dll": {
            "fileVersion": "10.0.17134.12"
          },
          "runtimes/win-x64/native/api-ms-win-crt-convert-l1-1-0.dll": {
            "fileVersion": "10.0.17134.12"
          },
          "runtimes/win-x64/native/api-ms-win-crt-environment-l1-1-0.dll": {
            "fileVersion": "10.0.17134.12"
          },
          "runtimes/win-x64/native/api-ms-win-crt-filesystem-l1-1-0.dll": {
            "fileVersion": "10.0.17134.12"
          },
          "runtimes/win-x64/native/api-ms-win-crt-heap-l1-1-0.dll": {
            "fileVersion": "10.0.17134.12"
          },
          "runtimes/win-x64/native/api-ms-win-crt-locale-l1-1-0.dll": {
            "fileVersion": "10.0.17134.12"
          },
          "runtimes/win-x64/native/api-ms-win-crt-math-l1-1-0.dll": {
            "fileVersion": "10.0.17134.12"
          },
          "runtimes/win-x64/native/api-ms-win-crt-multibyte-l1-1-0.dll": {
            "fileVersion": "10.0.17134.12"
          },
          "runtimes/win-x64/native/api-ms-win-crt-private-l1-1-0.dll": {
            "fileVersion": "10.0.17134.12"
          },
          "runtimes/win-x64/native/api-ms-win-crt-process-l1-1-0.dll": {
            "fileVersion": "10.0.17134.12"
          },
          "runtimes/win-x64/native/api-ms-win-crt-runtime-l1-1-0.dll": {
            "fileVersion": "10.0.17134.12"
          },
          "runtimes/win-x64/native/api-ms-win-crt-stdio-l1-1-0.dll": {
            "fileVersion": "10.0.17134.12"
          },
          "runtimes/win-x64/native/api-ms-win-crt-string-l1-1-0.dll": {
            "fileVersion": "10.0.17134.12"
          },
          "runtimes/win-x64/native/api-ms-win-crt-time-l1-1-0.dll": {
            "fileVersion": "10.0.17134.12"
          },
          "runtimes/win-x64/native/api-ms-win-crt-utility-l1-1-0.dll": {
            "fileVersion": "10.0.17134.12"
          },
          "runtimes/win-x64/native/clrcompression.dll": {
            "fileVersion": "4.6.28008.3"
          },
          "runtimes/win-x64/native/clretwrc.dll": {
            "fileVersion": "4.6.28008.2"
          },
          "runtimes/win-x64/native/clrjit.dll": {
            "fileVersion": "4.6.28008.2"
          },
          "runtimes/win-x64/native/coreclr.dll": {
            "fileVersion": "4.6.28008.2"
          },
          "runtimes/win-x64/native/dbgshim.dll": {
            "fileVersion": "4.6.28008.2"
          },
          "runtimes/win-x64/native/mscordaccore.dll": {
            "fileVersion": "4.6.28008.2"
          },
          "runtimes/win-x64/native/mscordaccore_amd64_amd64_4.6.28008.02.dll": {
            "fileVersion": "4.6.28008.2"
          },
          "runtimes/win-x64/native/mscordbi.dll": {
            "fileVersion": "4.6.28008.2"
          },
          "runtimes/win-x64/native/mscorrc.debug.dll": {
            "fileVersion": "4.6.28008.2"
          },
          "runtimes/win-x64/native/mscorrc.dll": {
            "fileVersion": "4.6.28008.2"
          },
          "runtimes/win-x64/native/sos.dll": {
            "fileVersion": "4.6.28008.2"
          },
          "runtimes/win-x64/native/sos_amd64_amd64_4.6.28008.02.dll": {
            "fileVersion": "4.6.28008.2"
          },
          "runtimes/win-x64/native/ucrtbase.dll": {
            "fileVersion": "10.0.17134.12"
          }
        }
      },
      "runtime.win-x64.Microsoft.NETCore.DotNetAppHost/2.2.7": {
        "native": {
          "runtimes/win-x64/native/apphost.exe": {
            "fileVersion": "0.0.0.0"
          }
        }
      },
      "runtime.win-x64.Microsoft.NETCore.DotNetHostPolicy/2.2.7": {
        "dependencies": {
          "Microsoft.NETCore.DotNetHostResolver": "2.2.7"
        },
        "native": {
          "runtimes/win-x64/native/hostpolicy.dll": {
            "fileVersion": "2.2.28009.1"
          }
        }
      },
      "runtime.win-x64.Microsoft.NETCore.DotNetHostResolver/2.2.7": {
        "dependencies": {
          "Microsoft.NETCore.DotNetAppHost": "2.2.7"
        },
        "native": {
          "runtimes/win-x64/native/hostfxr.dll": {
            "fileVersion": "2.2.28009.1"
          }
        }
      }
    }
  },
  "libraries": {
    "EncryptionStandards/1.0.0": {
      "type": "project",
      "serviceable": false,
      "sha512": ""
    },
    "Microsoft.NETCore.App/2.2.7": {
      "type": "package",
      "serviceable": true,
      "sha512": "sha512-Ybrn8qpFrdY74qjTdQuIjqv4QF2wIJmAvpIWC1C5kjt/VYRr3XajPo6AdRisfr8DqbVXpMqo8WDgXOVm+KduTw==",
      "path": "microsoft.netcore.app/2.2.7",
      "hashPath": "microsoft.netcore.app.2.2.7.nupkg.sha512"
    },
    "Microsoft.NETCore.DotNetAppHost/2.2.7": {
      "type": "package",
      "serviceable": true,
      "sha512": "sha512-YheaD+lYfIZ2K/A3u6Svph8ejU+r9ljqFVWqeWmqVWLUDcvNgNLnCLOr/oHIUgAD3d5ojOk02tpyAbtl2Ni8Hg==",
      "path": "microsoft.netcore.dotnetapphost/2.2.7",
      "hashPath": "microsoft.netcore.dotnetapphost.2.2.7.nupkg.sha512"
    },
    "Microsoft.NETCore.DotNetHostPolicy/2.2.7": {
      "type": "package",
      "serviceable": true,
      "sha512": "sha512-hFJ5xhFijBomv9xJ8d7uGOi4nU2otX5EF2qyCYRDdFEfVlpHTC8Dgz0/QYXZnZFW5fGxzQGEzV46OmmhUO72Eg==",
      "path": "microsoft.netcore.dotnethostpolicy/2.2.7",
      "hashPath": "microsoft.netcore.dotnethostpolicy.2.2.7.nupkg.sha512"
    },
    "Microsoft.NETCore.DotNetHostResolver/2.2.7": {
      "type": "package",
      "serviceable": true,
      "sha512": "sha512-OhwPnVl1kCHvGqxGS4G77nRY8Qp2M7lH+OONsYysiIZ35u9vKYh26X5Kik92q+ocn+pHMeiKLICpRp9cm0jzvw==",
      "path": "microsoft.netcore.dotnethostresolver/2.2.7",
      "hashPath": "microsoft.netcore.dotnethostresolver.2.2.7.nupkg.sha512"
    },
    "Microsoft.NETCore.Platforms/2.2.3": {
      "type": "package",
      "serviceable": true,
      "sha512": "sha512-cdiDrA08CUT2gpupY2XDx+PzomJnKATPFSf/DeDhWEMhydlpSch1G0zbV7DE1U7YUrgmLoqNsCeCL0wI5bbbCA==",
      "path": "microsoft.netcore.platforms/2.2.3",
      "hashPath": "microsoft.netcore.platforms.2.2.3.nupkg.sha512"
    },
    "Microsoft.NETCore.Targets/2.0.0": {
      "type": "package",
      "serviceable": true,
      "sha512": "sha512-odP/tJj1z6GylFpNo7pMtbd/xQgTC3Ex2If63dRTL38bBNMwsBnJ+RceUIyHdRBC0oik/3NehYT+oECwBhIM3Q==",
      "path": "microsoft.netcore.targets/2.0.0",
      "hashPath": "microsoft.netcore.targets.2.0.0.nupkg.sha512"
    },
    "NETStandard.Library/2.0.3": {
      "type": "package",
      "serviceable": true,
      "sha512": "sha512-st47PosZSHrjECdjeIzZQbzivYBJFv6P2nv4cj2ypdI204DO+vZ7l5raGMiX4eXMJ53RfOIg+/s4DHVZ54Nu2A==",
      "path": "netstandard.library/2.0.3",
      "hashPath": "netstandard.library.2.0.3.nupkg.sha512"
    },
    "runtime.win-x64.Microsoft.NETCore.App/2.2.7": {
      "type": "package",
      "serviceable": true,
      "sha512": "sha512-9T0lhnhAsOC5Ucs1JstPfVoDeB++deMaeAMd6VSWTZG5RZI+u3LSEjnMXzuwjnhFN0sZ0Oe1YYx+HotAcEfGuQ==",
      "path": "runtime.win-x64.microsoft.netcore.app/2.2.7",
      "hashPath": "runtime.win-x64.microsoft.netcore.app.2.2.7.nupkg.sha512"
    },
    "runtime.win-x64.Microsoft.NETCore.DotNetAppHost/2.2.7": {
      "type": "package",
      "serviceable": true,
      "sha512": "sha512-6Rw+FVVfXv8dwmJJIt14f9p+0cyujHSg4ordqzNEamezvYc203/FNmbwPPd0J8epEDZQU7D08KQzLmx4p4+cbA==",
      "path": "runtime.win-x64.microsoft.netcore.dotnetapphost/2.2.7",
      "hashPath": "runtime.win-x64.microsoft.netcore.dotnetapphost.2.2.7.nupkg.sha512"
    },
    "runtime.win-x64.Microsoft.NETCore.DotNetHostPolicy/2.2.7": {
      "type": "package",
      "serviceable": true,
      "sha512": "sha512-C3aDxAJ+hylhHXdjlr1pumWs4e86H74ZMh8N7zHGH1UzfymprDS+aRE8ZQNWTz5cTs/n2MT0V0A57BzhyYlwvg==",
      "path": "runtime.win-x64.microsoft.netcore.dotnethostpolicy/2.2.7",
      "hashPath": "runtime.win-x64.microsoft.netcore.dotnethostpolicy.2.2.7.nupkg.sha512"
    },
    "runtime.win-x64.Microsoft.NETCore.DotNetHostResolver/2.2.7": {
      "type": "package",
      "serviceable": true,
      "sha512": "sha512-7P/I2M9tc4/f17GTyhn/DHmPo3iYRhZ3cXt19+aYJwnOp6VruYjdsjvu9Z/zN6EhNWwdzGzVNvqL38ra4ULt3g==",
      "path": "runtime.win-x64.microsoft.netcore.dotnethostresolver/2.2.7",
      "hashPath": "runtime.win-x64.microsoft.netcore.dotnethostresolver.2.2.7.nupkg.sha512"
    }
  }
}